{
  "urn" : "local:ferdinando.villa:im.data.global:admin.countries.un.split",
  "version" : "0.0.1",
  "adapterType" : "wfs",
  "localPath" : "im.data.global/resources/admin.countries.un.split.v0.0.1",
  "geometry" : "s1(279){bbox=[-180.00012728 180.0001272720001 -89.90012879899996 83.62294973200005],proj=EPSG:4326}",
  "projectName" : "im.data.global",
  "localName" : "admin.countries.un.split",
  "type" : "OBJECT",
  "resourceTimestamp" : 1621497791416,
  "metadata" : {
    "im:keywords" : "features,administrative-level-0-un-split",
    "dc:comment" : "",
    "im:notes" : "The file is the official UN-endorsed country borders. This annotation includes a filter that skips Antarctica so it can be used more easily in automated workflows that build\r\ncountry-level information. This version optimize countries visualization inthe system (i.e. a county having a very small island far away from the rest of the context is split)\r\nThis allows the system to optimize the resolution on the whole context. Models run individually on each split polygons, results are combined in the end",
    "dc:title" : "administrative-level-0-un-split",
    "dc:url" : "",
    "dc:creator" : "",
    "im:thematic-area" : "",
    "dc:originator" : "",
    "im:geographic-area" : "",
    "dc:source" : ""
  },
  "parameters" : {
    "filter" : "",
    "computeUnion" : "false",
    "serviceUrl" : "https://integratedmodelling.org/geoserver/ows",
    "wfsVersion" : "1.0.0",
    "computeHull" : "false",
    "wfsIdentifier" : "im-data-global-geography:administrative_level_0_un_split",
    "nameAttribute" : "ID_name",
    "sanitize" : "true"
  },
  "localPaths" : [ ],
  "history" : [ ],
  "notifications" : [ ],
  "attributes" : [ {
    "name" : "GID",
    "type" : "TEXT",
    "key" : false,
    "optional" : true,
    "exampleValue" : null,
    "index" : 0
  }, {
    "name" : "Shape_Leng",
    "type" : "NUMBER",
    "key" : false,
    "optional" : true,
    "exampleValue" : null,
    "index" : 0
  }, {
    "name" : "Shape_Area",
    "type" : "NUMBER",
    "key" : false,
    "optional" : true,
    "exampleValue" : null,
    "index" : 0
  }, {
    "name" : "Country_n",
    "type" : "TEXT",
    "key" : false,
    "optional" : true,
    "exampleValue" : null,
    "index" : 0
  }, {
    "name" : "ID",
    "type" : "TEXT",
    "key" : false,
    "optional" : true,
    "exampleValue" : null,
    "index" : 0
  }, {
    "name" : "ID_list",
    "type" : "TEXT",
    "key" : false,
    "optional" : true,
    "exampleValue" : null,
    "index" : 0
  }, {
    "name" : "ID_name",
    "type" : "TEXT",
    "key" : false,
    "optional" : true,
    "exampleValue" : null,
    "index" : 0
  } ],
  "spatialExtent" : {
    "east" : 180.0001272720001,
    "west" : -180.00012728,
    "north" : 83.62294973200005,
    "south" : -89.90012879899996,
    "gridResolution" : null,
    "gridUnit" : null
  },
  "dependencies" : null,
  "outputs" : null,
  "categorizables" : [ ],
  "exportFormats" : { }
}