{
  "soil.rainfallrunofferosivity#Definition#Results" : {
    "trigger" : "DEFINITION",
    "sectionRole" : "RESULTS",
    "section" : "Results",
    "documentedId" : "soil.rainfallrunofferosivity",
    "extended" : null,
    "template" : "@section(RUSLE Factors )\r\n---\r\n@figure(self, Rfactor)\r\n---\r\n\r\n@link(Rfactor) shows the R factor, which captures the effect of rainfall on erosion.",
    "sectionType" : "BODY",
    "documentedUrns" : [ ],
    "eventType" : null,
    "variables" : { }
  }
}