{
  "urn" : "local:akif.ortak:im.data.global:im-data-global-ecology.c_gls_lai_mean_2004",
  "version" : "0.0.1",
  "adapterType" : "wcs",
  "localPath" : "im.data.global/resources/im-data-global-ecology.c_gls_lai_mean_2004",
  "geometry" : "τ1{tend=1104537600000,tstart=1072915200000,ttype=logical}S2(40319,15679){bbox=[-180.00446428571428 179.9955357147016 -59.99553571444743 80.00446428571429],proj=EPSG:4326}",
  "projectName" : "im.data.global",
  "localName" : "im-data-global-ecology.c_gls_lai_mean_2004",
  "type" : "NUMBER",
  "resourceTimestamp" : 1708684090694,
  "metadata" : {
    "im:keywords" : "Ecology,LeafAreaIndex,Vegetation,Forest",
    "dc:comment" : "The Leaf Area Index is defined as half the total area of green elements of the canopy per unit horizontal ground area. The satellite-derived value corresponds to the total green LAI of all the canopy layers, including the understory which may represent a very significant contribution, particularly for forests. Practically, the LAI quantifies the thickness of the vegetation cover.\r\nAries team calculated the annual mean value of LAI data from Copernicus 1km NDVI data.\r\n\r\n",
    "im:notes" : "",
    "dc:title" : "Copernicus Lands Service LAI 1km V2 (2004)",
    "dc:url" : "https://land.copernicus.eu/global/products/lai",
    "dc:creator" : "",
    "im:thematic-area" : "Ecology",
    "dc:originator" : "Copernicus Global Land Service",
    "im:geographic-area" : "Global",
    "dc:source" : "Copernicus Global Land Service\r\nhttp://land.copernicus.eu/global/products/lai"
  },
  "parameters" : {
    "wcsIdentifier" : "im-data-global-ecology__c_gls_LAI_Mean_2004",
    "transform" : "(self>=210 ) ? null : (self / 30)",
    "serviceUrl" : "https://integratedmodelling.org/geoserver/ows",
    "nodata" : "255",
    "wcsVersion" : "2.0.1"
  },
  "localPaths" : [ ],
  "history" : [ ],
  "notifications" : [ ],
  "attributes" : [ ],
  "spatialExtent" : {
    "east" : 179.9955357147016,
    "west" : -180.00446428571428,
    "north" : 80.00446428571429,
    "south" : -59.99553571444743,
    "gridResolution" : null,
    "gridUnit" : null
  },
  "dependencies" : null,
  "outputs" : null,
  "categorizables" : [ ],
  "codelists" : [ ],
  "availability" : null,
  "exportFormats" : { }
}