{
  "urn" : "local:ferdinando.villa:im.data.global:crops.reference.totals",
  "version" : "0.0.1",
  "adapterType" : "xls",
  "localPath" : "im.data.global/resources/crops.reference.totals.v0.0.1",
  "geometry" : "s1(250){bbox=[-180.00012728 180.0001272720001 -89.90012879899996 83.62294973200005],proj=EPSG:4326}",
  "projectName" : "im.data.global",
  "localName" : "crops.reference.totals",
  "type" : null,
  "resourceTimestamp" : 1613313927083,
  "metadata" : {
    "im:keywords" : "",
    "dc:comment" : "",
    "im:notes" : "Produced with im.data.global:data.reference.monfreda script",
    "dc:title" : "Reference values of crop production from Earthscan data, total by country",
    "dc:url" : "",
    "dc:creator" : "",
    "im:thematic-area" : "Agriculture",
    "dc:originator" : "Integrated Modelling Partnership",
    "im:geographic-area" : "Global",
    "dc:source" : ""
  },
  "parameters" : {
    "column.agriculture:barley.searchable" : "false",
    "column.agriculture:cucumber.searchable" : "false",
    "headers.rows" : "false",
    "column.agriculture:sugarbeet.index" : "19",
    "column.country.mapping" : "",
    "column.agriculture:soybean.mapping" : "",
    "column.agriculture:rye.searchable" : "false",
    "headers.columns" : "true",
    "column.agriculture:melon.searchable" : "false",
    "column.agriculture:wheat.mapping" : "",
    "column.agriculture:peach.index" : "12",
    "column.agriculture:plum.index" : "14",
    "format.trimspaces" : "false",
    "column.agriculture:rye.size" : "-1",
    "column.agriculture:maize.size" : "-1",
    "column.agriculture:maize.searchable" : "false",
    "column.agriculture:sunflower.size" : "-1",
    "column.agriculture:avocado.searchable" : "false",
    "column.agriculture:rice.mapping" : "",
    "column.agriculture:watermelon.index" : "22",
    "column.agriculture:barley.mapping" : "",
    "column.agriculture:avocado.index" : "4",
    "column.agriculture:pear.index" : "13",
    "column.agriculture:sugarcane.searchable" : "false",
    "column.agriculture:pumpkin.index" : "16",
    "column.agriculture:sunflower.mapping" : "",
    "column.agriculture:melon.mapping" : "",
    "column.agriculture:watermelon.mapping" : "",
    "column.agriculture:rye.index" : "2",
    "column.agriculture:barley.size" : "-1",
    "column.agriculture:wheat.index" : "23",
    "column.agriculture:potato.size" : "-1",
    "column.agriculture:soybean.index" : "18",
    "column.agriculture:mango.index" : "7",
    "column.agriculture:melon.size" : "-1",
    "rows.total" : "250",
    "column.agriculture:barley.index" : "3",
    "format.lineseparator" : "",
    "column.agriculture:pumpkin.searchable" : "false",
    "column.agriculture:sugarbeet.searchable" : "false",
    "format.nodata" : "",
    "column.agriculture:peach.size" : "-1",
    "column.agriculture:pear.size" : "-1",
    "column.agriculture:potato.searchable" : "false",
    "column.agriculture:pear.searchable" : "false",
    "column.agriculture:apple.index" : "1",
    "column.agriculture:cocoa.index" : "5",
    "column.agriculture:maize.mapping" : "",
    "column.agriculture:sugarcane.index" : "20",
    "column.agriculture:avocado.size" : "-1",
    "column.agriculture:plum.searchable" : "false",
    "rows.data" : "249",
    "column.agriculture:palmoil.mapping" : "",
    "column.agriculture:pumpkin.size" : "-1",
    "column.agriculture:sugarbeet.size" : "-1",
    "column.agriculture:mango.size" : "-1",
    "column.agriculture:melon.index" : "9",
    "column.agriculture:rice.size" : "-1",
    "column.agriculture:cocoa.searchable" : "false",
    "column.agriculture:palmoil.index" : "11",
    "column.agriculture:wheat.size" : "-1",
    "format.quote" : "\"",
    "column.agriculture:oilseed.mapping" : "",
    "column.agriculture:palmoil.searchable" : "false",
    "column.agriculture:sugarbeet.mapping" : "",
    "column.agriculture:oilseed.size" : "-1",
    "column.agriculture:soybean.searchable" : "false",
    "format.encoding" : "",
    "column.country.size" : "-1",
    "resource.type" : "csv",
    "column.agriculture:mango.mapping" : "",
    "column.agriculture:sugarcane.mapping" : "",
    "column.agriculture:pear.mapping" : "",
    "column.country.searchable" : "false",
    "time.encoding" : "",
    "column.agriculture:watermelon.searchable" : "false",
    "column.agriculture:potato.mapping" : "",
    "column.agriculture:palmoil.size" : "-1",
    "column.agriculture:soybean.size" : "-1",
    "column.agriculture:sunflower.index" : "21",
    "column.agriculture:sugarcane.size" : "-1",
    "column.agriculture:maize.index" : "8",
    "column.agriculture:peach.searchable" : "false",
    "space.encoding" : "country->local:ferdinando.villa:im.data.global:admin.countries.un#gid",
    "column.agriculture:mango.searchable" : "false",
    "column.agriculture:cucumber.index" : "6",
    "column.agriculture:cocoa.mapping" : "",
    "column.agriculture:sunflower.searchable" : "false",
    "column.agriculture:plum.size" : "-1",
    "format.source" : "DEFAULT",
    "column.agriculture:pumpkin.mapping" : "",
    "format.delimiter" : ",",
    "columns.total" : "24",
    "column.agriculture:rice.index" : "17",
    "column.agriculture:avocado.mapping" : "",
    "column.agriculture:oilseed.index" : "10",
    "column.agriculture:wheat.searchable" : "false",
    "column.agriculture:rice.searchable" : "false",
    "column.country.index" : "0",
    "column.agriculture:apple.searchable" : "false",
    "column.agriculture:watermelon.size" : "-1",
    "column.agriculture:apple.mapping" : "",
    "column.agriculture:oilseed.searchable" : "false",
    "column.agriculture:plum.mapping" : "",
    "column.agriculture:apple.size" : "-1",
    "column.agriculture:peach.mapping" : "",
    "column.agriculture:cucumber.size" : "-1",
    "column.agriculture:rye.mapping" : "",
    "column.agriculture:cucumber.mapping" : "",
    "column.agriculture:potato.index" : "15",
    "resource.file" : "crops.reference.totals.csv",
    "columns.data" : "24",
    "column.agriculture:cocoa.size" : "-1"
  },
  "localPaths" : "im.data.global/resources/crops.reference.totals.v0.0.1/crops.reference.totals.csv",
  "history" : [ ],
  "notifications" : [ ],
  "attributes" : [ {
    "name" : "country",
    "type" : "TEXT",
    "key" : false,
    "optional" : true,
    "exampleValue" : null,
    "index" : 0
  }, {
    "name" : "agriculture:apple",
    "type" : "NUMBER",
    "key" : false,
    "optional" : true,
    "exampleValue" : null,
    "index" : 1
  }, {
    "name" : "agriculture:rye",
    "type" : "NUMBER",
    "key" : false,
    "optional" : true,
    "exampleValue" : null,
    "index" : 2
  }, {
    "name" : "agriculture:barley",
    "type" : "NUMBER",
    "key" : false,
    "optional" : true,
    "exampleValue" : null,
    "index" : 3
  }, {
    "name" : "agriculture:avocado",
    "type" : "NUMBER",
    "key" : false,
    "optional" : true,
    "exampleValue" : null,
    "index" : 4
  }, {
    "name" : "agriculture:cocoa",
    "type" : "NUMBER",
    "key" : false,
    "optional" : true,
    "exampleValue" : null,
    "index" : 5
  }, {
    "name" : "agriculture:cucumber",
    "type" : "NUMBER",
    "key" : false,
    "optional" : true,
    "exampleValue" : null,
    "index" : 6
  }, {
    "name" : "agriculture:mango",
    "type" : "NUMBER",
    "key" : false,
    "optional" : true,
    "exampleValue" : null,
    "index" : 7
  }, {
    "name" : "agriculture:maize",
    "type" : "NUMBER",
    "key" : false,
    "optional" : true,
    "exampleValue" : null,
    "index" : 8
  }, {
    "name" : "agriculture:melon",
    "type" : "NUMBER",
    "key" : false,
    "optional" : true,
    "exampleValue" : null,
    "index" : 9
  }, {
    "name" : "agriculture:oilseed",
    "type" : "NUMBER",
    "key" : false,
    "optional" : true,
    "exampleValue" : null,
    "index" : 10
  }, {
    "name" : "agriculture:palmoil",
    "type" : "NUMBER",
    "key" : false,
    "optional" : true,
    "exampleValue" : null,
    "index" : 11
  }, {
    "name" : "agriculture:peach",
    "type" : "NUMBER",
    "key" : false,
    "optional" : true,
    "exampleValue" : null,
    "index" : 12
  }, {
    "name" : "agriculture:pear",
    "type" : "NUMBER",
    "key" : false,
    "optional" : true,
    "exampleValue" : null,
    "index" : 13
  }, {
    "name" : "agriculture:plum",
    "type" : "NUMBER",
    "key" : false,
    "optional" : true,
    "exampleValue" : null,
    "index" : 14
  }, {
    "name" : "agriculture:potato",
    "type" : "NUMBER",
    "key" : false,
    "optional" : true,
    "exampleValue" : null,
    "index" : 15
  }, {
    "name" : "agriculture:pumpkin",
    "type" : "NUMBER",
    "key" : false,
    "optional" : true,
    "exampleValue" : null,
    "index" : 16
  }, {
    "name" : "agriculture:rice",
    "type" : "NUMBER",
    "key" : false,
    "optional" : true,
    "exampleValue" : null,
    "index" : 17
  }, {
    "name" : "agriculture:soybean",
    "type" : "NUMBER",
    "key" : false,
    "optional" : true,
    "exampleValue" : null,
    "index" : 18
  }, {
    "name" : "agriculture:sugarbeet",
    "type" : "NUMBER",
    "key" : false,
    "optional" : true,
    "exampleValue" : null,
    "index" : 19
  }, {
    "name" : "agriculture:sugarcane",
    "type" : "NUMBER",
    "key" : false,
    "optional" : true,
    "exampleValue" : null,
    "index" : 20
  }, {
    "name" : "agriculture:sunflower",
    "type" : "NUMBER",
    "key" : false,
    "optional" : true,
    "exampleValue" : null,
    "index" : 21
  }, {
    "name" : "agriculture:watermelon",
    "type" : "NUMBER",
    "key" : false,
    "optional" : true,
    "exampleValue" : null,
    "index" : 22
  }, {
    "name" : "agriculture:wheat",
    "type" : "NUMBER",
    "key" : false,
    "optional" : true,
    "exampleValue" : null,
    "index" : 23
  } ],
  "spatialExtent" : null,
  "dependencies" : null,
  "outputs" : null,
  "categorizables" : "Column header",
  "exportFormats" : { }
}