{
  "urn" : "local:rubencc:im.data.global:im-data-global-conservation.landscape_naturalness_europe_4326_2000",
  "version" : "0.0.1",
  "adapterType" : "wcs",
  "localPath" : "im.data.global/resources/im-data-global-conservation.landscape_naturalness_europe_4326_2000",
  "geometry" : "τ1{tend=978307200000,tstart=946684800000,ttype=logical}S2(101054,37777){bbox=[-56.505141902 72.90610493400001 24.284682929 72.663269668],proj=EPSG:4326}",
  "projectName" : "im.data.global",
  "localName" : "im-data-global-conservation.landscape_naturalness_europe_4326_2000",
  "type" : "NUMBER",
  "resourceTimestamp" : 1705658212708,
  "metadata" : {
    "im:keywords" : "landscape, naturalness, europe, 4326",
    "dc:comment" : "The landscape naturalness of Europe is represented in percentages with 100 as more naturalness and 0 as less following the method on \"Accounting for forest condition in Europe based on an international statistical standard\" by Maes et al.\r\nThis resource was created with GUIDOS toolbox. Starting with the Corine account layers, after reclassifying the values to fit into a byte-type raster, a reclassification was done for Nodata = 0, Agriculture = 1, Natural = 2, Developed = 3. Continuous, GWB_LM is derived to Landscape Mosaic and finally reclassifies the values to recode the pixel-values of the 103-class version of LM into 12 clases.",
    "im:notes" : "",
    "dc:title" : "landscape naturalness of europe 4326 2000",
    "dc:url" : "https://www.nature.com/articles/s41467-023-39434-0",
    "dc:creator" : "Rubén Crespo Ceballos",
    "im:thematic-area" : "Conservation",
    "dc:originator" : "ARIES",
    "im:geographic-area" : "Global",
    "dc:source" : ""
  },
  "parameters" : {
    "wcsIdentifier" : "im-data-global-conservation__landscape_naturalness_europe_4326_2000",
    "transform" : "",
    "serviceUrl" : "https://integratedmodelling.org/geoserver/ows",
    "nodata" : "255.0",
    "wcsVersion" : "2.0.1"
  },
  "localPaths" : [ ],
  "history" : [ ],
  "notifications" : [ ],
  "attributes" : [ ],
  "spatialExtent" : {
    "east" : 72.90610493400001,
    "west" : -56.505141902,
    "north" : 72.663269668,
    "south" : 24.284682929,
    "gridResolution" : null,
    "gridUnit" : null
  },
  "dependencies" : null,
  "outputs" : null,
  "categorizables" : [ ],
  "codelists" : [ ],
  "availability" : null,
  "exportFormats" : { }
}