{
  "urn" : "local:rain80818:im.data.global:im-data-global-hydrology.water_table_data_annualmean_4326_global",
  "version" : "0.0.1",
  "adapterType" : "wcs",
  "localPath" : "im.data.global/resources/im-data-global-hydrology.water_table_data_annualmean_4326_global.v0.0.1",
  "geometry" : "S2(43203,16800){bbox=[-179.99583435058594 179.99086963381143 -55.99467875182762 83.99552154541016],proj=EPSG:4326}",
  "projectName" : "im.data.global",
  "localName" : "im-data-global-hydrology.water_table_data_annualmean_4326_global",
  "type" : "NUMBER",
  "resourceTimestamp" : 1646824820486,
  "metadata" : {
    "im:keywords" : "Global, Water Table Depth",
    "dc:comment" : "Shallow groundwater affects terrestrial ecosystems by sustaining river base-flow and root-zone soil water in the absence of rain, but little is known about the global patterns of water table depth and where it provides vital support for land ecosystems. This WTD data present global observations of water table depth compiled from government archives and literature, and fill in data gaps and infer patterns and processes using a groundwater model forced by modern climate, terrain, and sea level. Patterns in water table depth explain patterns in wetlands at the global scale and vegetation gradients at regional and local scales. Overall, shallow groundwater influences 22 to 32% of global land area, including ~15% as groundwater-fed surface water features and 7 to 17% with the water table or its capillary fringe within plant rooting depths.",
    "im:notes" : "1. These data can be used freely for research purposes provided that the following source is acknowledged: Fan Y, Miguez-Macho G, Jobbágy EG, Jackson RB, Otero-Casal C (2017): Hydrologic regulation of plant rooting depth, Proceedings of the National Academy of Sciences 114 (40), 10572-10577, doi: 10.1073/pnas.1712381114. \r\n2. These data are made available in the hope that it will be useful, but WITHOUT ANY WARRANTY; without even the implied warranty of MERCHANTABILITY or FITNESS FOR A PARTICULAR PURPOSE.\r\n3. Data spatial resolution description: About 1 km (at Equator)\r\n4. Data spatial resolution degree: 0.0083333300\r\n5. Data temporal frequency: static",
    "dc:title" : "Global patterns of groundwater table depth (WTD)",
    "dc:url" : "10.1073/pnas.1712381114",
    "dc:creator" : "Joint Research Centre of Ispra",
    "im:thematic-area" : "Hydrology",
    "dc:originator" : "Joint Research Centre of Ispra",
    "im:geographic-area" : "Global",
    "dc:source" : "1. Fan, Y., H. Li, G. Miguez-Macho (2013) Global patterns of groundwater table depth, Science, 339 (6122): 940-943, doi:10.1126/science.1229881 \r\n2. P. Döll, K. Fiedler (2008), Global-scale modeling of groundwater recharge. Hydrol. Earth Syst. Sci. 12, 863 (2008). doi:10.5194/hess-12-863-2008 \r\n3. Fan, Y., G. Miguez-Macho, E.G. Jobbágy, R.B. Jackson, C. Otero-Casal (2017) Hydrologic regulation of plant rooting depth, Proceedings of the National Academy of Sciences of the United States of America, Vol 114, No 40, 10572–10577, doi: 10.1073/pnas.1712381114."
  },
  "parameters" : {
    "wcsIdentifier" : "im-data-global-hydrology__water_table_data_annualmean_4326_global",
    "transform" : "",
    "serviceUrl" : "https://integratedmodelling.org/geoserver/ows",
    "band" : "0",
    "nodata" : "-5.68434E-14",
    "wcsVersion" : "2.0.1"
  },
  "localPaths" : [ ],
  "history" : [ ],
  "notifications" : [ ],
  "attributes" : [ ],
  "spatialExtent" : {
    "east" : 179.99086963381143,
    "west" : -179.99583435058594,
    "north" : 83.99552154541016,
    "south" : -55.99467875182762,
    "gridResolution" : null,
    "gridUnit" : null
  },
  "dependencies" : null,
  "outputs" : null,
  "categorizables" : [ ],
  "codelists" : [ ],
  "availability" : null,
  "exportFormats" : { }
}