{
  "urn" : "local:akif.ortak:im.data.global:im-data-global-soil.drought_scpdsi_mean_2010",
  "version" : "0.0.1",
  "adapterType" : "wcs",
  "localPath" : "im.data.global/resources/im-data-global-soil.drought_scpdsi_mean_2010",
  "geometry" : "τ1{tend=1293840000000,tstart=1262304000000,ttype=logical}S2(719,359){bbox=[-180.0 180.0 -90.0 90.0],proj=EPSG:4326}",
  "projectName" : "im.data.global",
  "localName" : "im-data-global-soil.drought_scpdsi_mean_2010",
  "type" : "NUMBER",
  "resourceTimestamp" : 1708687991100,
  "metadata" : {
    "im:keywords" : "Soil,Drought",
    "dc:comment" : "The scPDSI metric was introduced by Wells et al. (2004), who give detailed information about its calculation. The scPDSI is a variant on the original PDSI of Palmer (1965),\r\nwith the aim to make results from different climate regimes more comparable. As with the PDSI, the scPDSI is calculated from time series of precipitation and temperature,\r\ntogether with fixed parameters related to the soil/surface characteristics at each location.\r\nAries team calculated the annual mean value of scPDSI data from scPDSI monthly data. \r\n\r\n",
    "im:notes" : "",
    "dc:title" : "Self-calibrating Palmer Drought Severity Index (scPDSI) (2010)",
    "dc:url" : "https://crudata.uea.ac.uk/cru/data/drought/#global",
    "dc:creator" : "",
    "im:thematic-area" : "Soil",
    "dc:originator" : "UK NERC, NCAS",
    "im:geographic-area" : "Global",
    "dc:source" : "van der Schrier G, Barichivich J, Briffa KR and Jones PD (2013) A scPDSI-based\r\nglobal data set of dry and wet spells for 1901-2009. J. Geophys. Res. Atmos.\r\n118, 4025-4048 (10.1002/jgrd.50355), \r\nBarichivich J, Osborn TJ, Harris I, van der Schrier G and Jones PD (2019)\r\nDrought [in \"State of the Climate in 2017\"].\r\nBulletin of the American Meteorological Society 100"
  },
  "parameters" : {
    "wcsIdentifier" : "im-data-global-soil__Drought_scPDSI_Mean_2010",
    "serviceUrl" : "https://integratedmodelling.org/geoserver/ows",
    "wcsVersion" : "2.0.1"
  },
  "localPaths" : [ ],
  "history" : [ ],
  "notifications" : [ ],
  "attributes" : [ ],
  "spatialExtent" : {
    "east" : 180.0,
    "west" : -180.0,
    "north" : 90.0,
    "south" : -90.0,
    "gridResolution" : null,
    "gridUnit" : null
  },
  "dependencies" : null,
  "outputs" : null,
  "categorizables" : [ ],
  "codelists" : [ ],
  "availability" : null,
  "exportFormats" : { }
}