{
  "urn" : "local:alessio.bulckaen:im.data.global:im-data-global-ecology.global_gpw_grassland_rf_epsg_4326_2007", 
  "version" : "0.0.1", 
  "adapterType" : "wcs", 
  "localPath" : "im.data.global/resources/im-data-global-ecology.global_gpw_grassland_rf_epsg_4326_2007", 
  "geometry" : "τ1{tend=1199145600000,tstart=1167609600000,ttype=logical}S2(1435999,527999){bbox=[-180.0 178.99999999995345 -55.99999999998289 76.0],proj=EPSG:4326}", 
  "projectName" : "im.data.global", 
  "localName" : "im-data-global-ecology.global_gpw_grassland_rf_epsg_4326_2007", 
  "type" : "NUMBER", 
  "resourceTimestamp" : 1739961568724, 
  "metadata" : {
    "im:keywords" : "grassland extent, pasture, pastureland, grassland. natural grassland, semi-natural grassland", 
    "dc:comment" : "The dataset showing the spatiotemporal distribution of cultivated and natural/semi-natural grassland classes.\r\nThe grassland extent is classified into two classes:\r\n- Cultivated grassland: Areas where grasses and other forage plants have been intentionally planted and managed, as well as areas of native grassland-type vegetation where they clearly exhibit active and 'heavy' management for specific human-directed uses, such as directed grazing of livestock.\r\n- Natural/semi-natural grassland: Relatively undisturbed native grasslands/short-height vegetation, such as steppes and tundra, as well as areas that have experienced varying degrees of human activity in the past, which may contain a mix of native and introduced species due to historical land use and natural processes. In general, they exhibit natural-looking patterns of varied vegetation and clearly ordered hydrological relationships throughout the landscape.\r\nThe dataset includes:\r\n including:\r\n- Probabilities of cultivated grassland (values range from 0–100),\r\n- Probabilities of natural/semi-natural grassland (values range from 0–100), and\r\n- Dominant class (0-other land cover, 1-cultivated grassland and 2-natural/semi-natural grassland.\r\nThe suggested uses of data include (1) integration with other compatible land cover products and (2) tracking the intensity and drivers of conversion of land to cultivated grasslands and from natural / semi-natural grasslands into other land use systems.\r\n", 
    "im:notes" : "", 
    "dc:title" : "Global grassland class extent (2007)", 
    "dc:url" : "https://doi.org/10.5281/zenodo.13890403", 
    "dc:creator" : "Leandro Parente\r\nLindsey Sloat\r\nVinicius Mesquita\r\nDavide Consoli\r\nRadost Stanimirova\r\nTomislav Hengl\r\nCarmelo Bonannella\r\nNathália Teles\r\nIchsani Wheeler\r\nMaria Hunter\r\nSteffen Ehrmann\r\nLaerte Ferreira\r\nAna Paula Mattos\r\nBernard Oliveir\r\nCarsten Meyer\r\nMurat Şahin\r\nMartijn Witjes\r\nSteffen Fritz\r\nZiga Malek\r\nFred Stolle ", 
    "im:thematic-area" : "Ecology", 
    "dc:originator" : "Global Pasture Watch", 
    "im:geographic-area" : "Global", 
    "dc:source" : "https://www.nature.com/articles/s41597-024-04139-6"
  }, 
  "parameters" : {
    "wcsIdentifier" : "im-data-global-ecology__global_gpw_grassland_rf_epsg_4326_2007", 
    "transform" : "", 
    "serviceUrl" : "https://integratedmodelling.org/aux-geoserver/im-data-global-ecology/wcs", 
    "nodata" : "255.0", 
    "wcsVersion" : "2.0.1"
  }, 
  "localPaths" : [ ], 
  "history" : [ ], 
  "notifications" : [ ], 
  "attributes" : [ ], 
  "spatialExtent" : {
    "east" : 178.99999999995345, 
    "west" : -180.0, 
    "north" : 76.0, 
    "south" : -55.99999999998289, 
    "gridResolution" : null, 
    "gridUnit" : null
  }, 
  "dependencies" : null, 
  "outputs" : null, 
  "categorizables" : [ ], 
  "codelists" : [ ], 
  "availability" : null, 
  "exportFormats" : { }
}