{
  "urn" : "local:alessio.bulckaen:im.data.global:im-data-global-landcover.clc2018acc_v2018_20",
  "version" : "0.0.1",
  "adapterType" : "wcs",
  "localPath" : "im.data.global/resources/im-data-global-landcover.clc2018acc_v2018_20",
  "geometry" : "τ1{tend=1704067200000,tscope=1.0,tstart=1483228800000,ttype=logical,tunit=year}S2(64999,45999){bbox=[-56.505141901704384 72.90613675900903 24.28417700792107 72.6066088187037],proj=EPSG:4326}",
  "projectName" : "im.data.global",
  "localName" : "im-data-global-landcover.clc2018acc_v2018_20",
  "type" : "NUMBER",
  "resourceTimestamp" : 1683879952790,
  "metadata" : {
    "im:keywords" : "Land use, Water, Accounting, Land cover, Land use, European",
    "dc:comment" : "The present 100m raster dataset is the 2018 CLC status layer modified for the purpose of consistent statistical analysis in the land cover change accounting system at EEA.\r\n\r\nCORINE Land Cover (CLC) data are produced from 1986 for European (EEA member or cooperating) countries. Altogether five mapping inventories were implemented in this period, producing five status layers (CLC1990, CLC2000, CLC2006, CLC2012, CLC2018) and four CLC-Change (CLCC) layers for the corresponding periods (1990-2000, 2000-2006, 2006-2012, 2012-2018). Pan-European CLC and CLCC data are available as vector and raster products.\r\n\r\nDue to the technical characteristics of CLC and CLCC data, the evolution in CLC update methodology and in quality of input data, time-series statistics derived directly from historical CLC data includes several inconsistencies. In order to create a statistically solid basis for CLC-based time series analysis, a harmonization methodology was elaborated.",
    "im:notes" : "",
    "dc:title" : "Corine Land Cover 2018 (raster 100m) version 20 accounting layer, Jun. 2019",
    "dc:url" : "https://sdi.eea.europa.eu/catalogue/srv/eng/catalog.search#/metadata/5a5f43ca-1447-4ed0-b0a6-4bd2e17e4f4d",
    "dc:creator" : "",
    "im:thematic-area" : "Landcover",
    "dc:originator" : "EEA",
    "im:geographic-area" : "Global",
    "dc:source" : ""
  },
  "parameters" : {
    "wcsIdentifier" : "im-data-global-landcover__CLC2018ACC_V2018_20",
    "transform" : "",
    "serviceUrl" : "https://integratedmodelling.org/geoserver/im-data-global-landcover/wcs",
    "nodata" : "-32768.0",
    "wcsVersion" : "2.0.1"
  },
  "localPaths" : [ ],
  "history" : [ ],
  "notifications" : [ ],
  "attributes" : [ ],
  "spatialExtent" : {
    "east" : 72.90613675900903,
    "west" : -56.505141901704384,
    "north" : 72.6066088187037,
    "south" : 24.28417700792107,
    "gridResolution" : null,
    "gridUnit" : null
  },
  "dependencies" : null,
  "outputs" : null,
  "categorizables" : [ ],
  "codelists" : [ ],
  "availability" : null,
  "exportFormats" : { }
}