{
  "urn" : "local:rubencc:im.data.global:im-data-global-agriculture.global_spam_total_soybean_production_2020_v1r0",
  "version" : "0.0.1",
  "adapterType" : "wcs",
  "localPath" : "im.data.global/resources/im-data-global-agriculture.global_spam_total_soybean_production_2020_v1r0",
  "geometry" : "τ1{tend=1609459200000,tstart=1577836800000,ttype=logical}S2(4319,2159){bbox=[-180.0 179.99999999991803 -89.99999999995897 89.99999999999999],proj=EPSG:4326}",
  "projectName" : "im.data.global",
  "localName" : "im-data-global-agriculture.global_spam_total_soybean_production_2020_v1r0",
  "type" : "NUMBER",
  "resourceTimestamp" : 1720529475643,
  "metadata" : {
    "im:keywords" : "spatial analysis, crop production, agricultural development, geographical information systems, data processing, spatial distribution, spatial database",
    "dc:comment" : "The 2020 SPAM (Spatial Production Allocation Model) products, encompassing crop area, yield, and production at a 5-minute grid resolution, have been developed by Zhe Guo, Shuang Zhou, and Liangzhi You. Employing a diverse range of inputs, IFPRI's Spatial Production Allocation Model (SPAM) utilizes a cross-entropy method to generate plausible estimations of crop distribution within disaggregated units. By transitioning data from broader units like countries and sub-national provinces to more granular units such as grid cells, SPAM unveils spatial patterns of crop performance, forming a global grid-scape where geography intersects with agricultural production systems. Enhancing spatial comprehension of crop production systems empowers policymakers and donors to effectively target agricultural and rural development policies and investments, thereby enhancing food security and fostering growth while minimizing environmental impacts.\r\n\r\n",
    "im:notes" : "",
    "dc:title" : "Global spatially-disaggregated crop production all technologies together soybean production 2020 v1r0",
    "dc:url" : "https://dataverse.harvard.edu/dataset.xhtml?persistentId=doi:10.7910/DVN/SWPENT",
    "dc:creator" : "Zhe Guo, \r\nShuang Zhou,\r\nLiangzhi You",
    "im:thematic-area" : "Agriculture",
    "dc:originator" : "International Food Policy Research Institute (IFPRI)",
    "im:geographic-area" : "Global",
    "dc:source" : ""
  },
  "parameters" : {
    "wcsIdentifier" : "im-data-global-agriculture__global_spam_total_soybean_production_2020_v1r0",
    "transform" : "",
    "serviceUrl" : "https://integratedmodelling.org/geoserver/ows",
    "wcsVersion" : "2.0.1"
  },
  "localPaths" : [ ],
  "history" : [ ],
  "notifications" : [ ],
  "attributes" : [ ],
  "spatialExtent" : {
    "east" : 179.99999999991803,
    "west" : -180.0,
    "north" : 89.99999999999999,
    "south" : -89.99999999995897,
    "gridResolution" : null,
    "gridUnit" : null
  },
  "dependencies" : null,
  "outputs" : null,
  "categorizables" : [ ],
  "codelists" : [ ],
  "availability" : null,
  "exportFormats" : { }
}