{
  "urn" : "local:rain80818:im.data.global:hihydrosoil_ksat_m_250m_topsoil",
  "version" : "0.0.1",
  "adapterType" : "wcs",
  "localPath" : "im.data.global/resources/hihydrosoil_ksat_m_250m_topsoil.v0.0.1",
  "geometry" : "S2(158158,79079){bbox=[-180.0 179.99965524368662 -90.0009657159614 90.0],proj=EPSG:4326}",
  "projectName" : "im.data.global",
  "localName" : "hihydrosoil_ksat_m_250m_topsoil",
  "type" : "NUMBER",
  "resourceTimestamp" : 1699248237239,
  "metadata" : {
    "im:keywords" : "soil, hydraulic, properties",
    "dc:comment" : "This high resolution dataset was created to extract information from the FutureWater HiHydroSoil v2.0 database for soil hydraulic properties on a global scale. (HiHydroSoil: A High Resolution Map of Soil Hydraulic Properties. Version 2.0. Report FutureWater: 134. May 2020.) To avoid lengthy download times, the data layers originally consisting of float data type were multiplied by a factor of 10,000, and subsequently converted to integer type. It is therefore required to translate the data to the proper units by multiplying with 0.0001. For further details about the unit conversion, please see the \"Notes\" section below.",
    "im:notes" : "1. The original unit of the Saturated Hydraulic Conductivity is \"cm/day\". It is therefore required to translate the data to the unit of \"mm/day\" by multiplying with 10.\r\n2. The original units of the Field capacity, Ultimate Wilting Point, Permanent Wilting Point are \"m^3/m^3\". It is therefore required to translate the data to the unit of \"mm\" by multiplying with the proper soil layer depth.",
    "dc:title" : "Saturated Hydraulic Conductivity (mm/day) of the Topsoil (0-30cm)",
    "dc:url" : "https://www.futurewater.eu/projects/hihydrosoil/",
    "dc:creator" : "Froukje de Boer",
    "im:thematic-area" : "Soil",
    "dc:originator" : "FutureWater",
    "im:geographic-area" : "Global",
    "dc:source" : "1. Topsoil layer (0-30cm) depth: 30cm\r\n2. Subsoil layer (30-200cm) depth: 170cm"
  },
  "parameters" : {
    "wcsIdentifier" : "im-data-global-hydrology__ksat_m_250m_topsoil_1",
    "transform" : "self*10/10000",
    "serviceUrl" : "https://integratedmodelling.org/geoserver/ows",
    "band" : "0",
    "nodata" : "-9999.0",
    "wcsVersion" : "2.0.1"
  },
  "localPaths" : [ ],
  "history" : [ ],
  "notifications" : [ ],
  "attributes" : [ ],
  "spatialExtent" : {
    "east" : 179.99965524368662,
    "west" : -180.0,
    "north" : 90.0,
    "south" : -90.0009657159614,
    "gridResolution" : null,
    "gridUnit" : null
  },
  "dependencies" : null,
  "outputs" : null,
  "categorizables" : [ ],
  "codelists" : [ ],
  "availability" : null,
  "exportFormats" : { }
}