{
  "urn" : "local:akif.ortak:im.data.global:im-data-global-conservation.modis_mcd64a1_burned_area_2014",
  "version" : "0.0.1",
  "adapterType" : "wcs",
  "localPath" : "im.data.global/resources/im-data-global-conservation.modis_mcd64a1_burned_area_2014",
  "geometry" : "τ1{tend=1420070400000,tscope=1.0,tstart=1388534400000,ttype=logical,tunit=year}S2(156676,52223){bbox=[-179.99999995470677 179.999690757612 -49.996067379040824 69.99999999370779],proj=EPSG:4326}",
  "projectName" : "im.data.global",
  "localName" : "im-data-global-conservation.modis_mcd64a1_burned_area_2014",
  "type" : "NUMBER",
  "resourceTimestamp" : 1619624824830,
  "metadata" : {
    "im:keywords" : "Burned area, fire",
    "dc:comment" : "\"The Terra and Aqua combined MCD64A1 Version 6 Burned Area data product is a monthly, global gridded 500 meter (m) product containing per-pixel burned-area and quality information. The MCD64A1 burned-area mapping approach employs 500 m Moderate Resolution Imaging Spectroradiometer (MODIS) Surface Reflectance imagery coupled with 1 kilometer (km) MODIS active fire observations. The algorithm uses a burn sensitive Vegetation Index (VI) to create dynamic thresholds that are applied to the composite data. The VI is derived from MODIS shortwave infrared atmospherically corrected surface reflectance bands 5 and 7 with a measure of temporal texture. The algorithm identifies the date of burn for the 500 m grid cells within each individual MODIS tile. The date is encoded in a single data layer as the ordinal day of the calendar year on which the burn occurred with values assigned to unburned land pixels and additional special values reserved for missing data and water grid cells.\"",
    "im:notes" : "Daily burn data were postprocessed into an annual product identifying whether a grid cell burned or not in the year of interest.",
    "dc:title" : "Annual burned area, 2014, derived from MODIS MCD64A1 version 6",
    "dc:url" : "https://lpdaac.usgs.gov/products/mcd64a1v006/",
    "dc:creator" : "",
    "im:thematic-area" : "Ecology",
    "dc:originator" : "University of Maryland",
    "im:geographic-area" : "Non-spatial",
    "dc:source" : "Giglio, L., et al. 2018. The Collection 6 MODIS burned area mapping algorithm and product. Remote Sensing of Environment 217:72-85."
  },
  "parameters" : {
    "wcsIdentifier" : "im-data-global-conservation__modis_MCD64A1_burned_area_2014",
    "transform" : "(self != null) && (self != 0) ? (self/self) : self",
    "serviceUrl" : "https://integratedmodelling.org/geoserver/ows",
    "nodata" : "-32768.0",
    "wcsVersion" : "2.0.1"
  },
  "localPaths" : [ ],
  "history" : [ ],
  "notifications" : [ ],
  "attributes" : [ ],
  "spatialExtent" : {
    "east" : 179.999690757612,
    "west" : -179.99999995470677,
    "north" : 69.99999999370779,
    "south" : -49.996067379040824,
    "gridResolution" : null,
    "gridUnit" : null
  },
  "dependencies" : null,
  "outputs" : null,
  "categorizables" : [ ],
  "exportFormats" : { }
}