{
  "urn" : "local:alessio.bulckaen:im.data.global:tests.a_2000", 
  "version" : "0.0.1", 
  "adapterType" : "wcs", 
  "localPath" : "im.data.global/resources/tests.a_2000", 
  "geometry" : "τ1{tend=978307200000,tstart=946684800000,ttype=logical}S2(18553,18553){bbox=[-5.0 2.0253446608098358E-4 39.999797465533916 45.0],proj=EPSG:4326}", 
  "projectName" : "im.data.global", 
  "localName" : "tests.a_2000", 
  "type" : "NUMBER", 
  "resourceTimestamp" : 1739986570517, 
  "metadata" : {
    "im:keywords" : "landcover, global landcover", 
    "dc:comment" : "Global 30 m land-cover dynamics monitoring product with a fine classification (17 classes) system for the period from 1985 to 2022 generated using dense-time-series Landsat imagery and the continuous change-detection method", 
    "im:notes" : "", 
    "dc:title" : "Earth System Science Data Landcover (2000)", 
    "dc:url" : "https://zenodo.org/records/8239305", 
    "dc:creator" : "Xiao Zhang\r\nTingting Zhao\r\nHong Xu\r\nWendi Liu\r\nJinqing Wang\r\nXidong Chen\r\nLiangyun Liu", 
    "im:thematic-area" : "Landcover", 
    "dc:originator" : "Copernicus", 
    "im:geographic-area" : "Global", 
    "dc:source" : "https://doi.org/10.5194/essd-16-1353-2024"
  }, 
  "parameters" : {
    "wcsIdentifier" : "tests__a_2000", 
    "transform" : "", 
    "serviceUrl" : "https://integratedmodelling.org/aux-geoserver/tests/wcs", 
    "wcsVersion" : "2.0.1"
  }, 
  "localPaths" : [ ], 
  "history" : [ ], 
  "notifications" : [ ], 
  "attributes" : [ ], 
  "spatialExtent" : {
    "east" : 0.00020253446608098358, 
    "west" : -5.0, 
    "north" : 45.0, 
    "south" : 39.999797465533916, 
    "gridResolution" : null, 
    "gridUnit" : null
  }, 
  "dependencies" : null, 
  "outputs" : null, 
  "categorizables" : [ ], 
  "codelists" : [ ], 
  "availability" : null, 
  "exportFormats" : { }
}