{
  "urn" : "local:srwohl:im.data.global:im-data-global-agriculture.barley_high_input_spam_2010",
  "version" : "0.0.1",
  "adapterType" : "wcs",
  "localPath" : "im.data.global/resources/im-data-global-agriculture.barley_high_input_spam_2010",
  "geometry" : "τ1{tend=1293840000000,tscope=1.0,tstart=1262304000000,ttype=logical,tunit=year}S2(4319,2159){bbox=[-180.0 179.99856 -89.99928 90.0],proj=EPSG:4326}",
  "projectName" : "im.data.global",
  "localName" : "im-data-global-agriculture.barley_high_input_spam_2010",
  "type" : "NUMBER",
  "resourceTimestamp" : 1606745071544,
  "metadata" : {
    "im:keywords" : "agriculture, irrigation, high_input",
    "dc:comment" : "Once the input data has been processed through SPAM the resulted output data is more granular (10 x 10 km grid-cell resolution)\n and specifically based on the four variables which are calculated by the model: physical area, harvest area, production and yield,\n for each of the 42 crops, split by rainfed and irrigated production system, as well as the total combination of both.\n\n",
    "im:notes" : "More info: https://s3.amazonaws.com/mapspam/2010/v1.1/readme_v1r1_global.txt",
    "dc:title" : "SPAM 2010 v1.1 Global Data",
    "dc:url" : "https://www.mapspam.info/data/",
    "dc:creator" : "",
    "im:thematic-area" : "Agriculture",
    "dc:originator" : "International Food Policy Research Institute",
    "im:geographic-area" : "Global",
    "dc:source" : "International Food Policy Research Institute, 2019, “Global Spatially-Disaggregated Crop Production Statistics Data for 2010 Version 1.1”, https://doi.org/10.7910/DVN/PRFF8V, Harvard Dataverse, V3\n\n"
  },
  "parameters" : {
    "wcsIdentifier" : "im-data-global-agriculture__barley_high_input_spam_2010",
    "serviceUrl" : "https://integratedmodelling.org/geoserver/ows",
    "nodata" : "255.0",
    "wcsVersion" : "2.0.1",
    "transform" : "self/1000"
  },
  "localPaths" : [ ],
  "history" : [ ],
  "notifications" : [ ],
  "attributes" : [ ],
  "spatialExtent" : {
    "east" : 179.99856,
    "west" : -180.0,
    "north" : 90.0,
    "south" : -89.99928,
    "gridResolution" : null,
    "gridUnit" : null
  },
  "dependencies" : null,
  "outputs" : null,
  "exportFormats" : { }
}