{
  "urn" : "local:alessio.bulckaen:im.data.global:im-data-global-conservation.intact_forest_landscapes_2020",
  "version" : "0.0.1",
  "adapterType" : "wcs",
  "localPath" : "im.data.global/resources/im-data-global-conservation.intact_forest_landscapes_2020",
  "geometry" : "τ1{tend=1609459200000,tstart=1577836800000,ttype=logical}S2(43867,15648){bbox=[-172.703140258 178.24085974200003 -55.459789326000006 69.732210674],proj=EPSG:4326}",
  "projectName" : "im.data.global",
  "localName" : "im-data-global-conservation.intact_forest_landscapes_2020",
  "type" : "NUMBER",
  "resourceTimestamp" : 1670968366068,
  "metadata" : {
    "im:keywords" : "conservation, forest",
    "dc:comment" : "This data set from the GLAD (Global Land Analysis & Discovery) lab at the University of Maryland measures areas of tree cover gain from the year 2000 to 2020 across the globe at 30 × 30 meter resolution, displayed as a 20-year cumulative layer. Tree cover gain was determined using tree height information from the years 2000 and 2020. Tree height was modeled by the integration of the Global Ecosystem Dynamics Investigation (GEDI) lidar forest structure measurements and Landsat analysis-ready data time-series. The NASA GEDI is a spaceborne lidar instrument operating onboard the International Space Station since April 2019. It provides point-based measurements of vegetation structure, including forest canopy height at latitudes between 52°N and 52°S globally. Gain was identified where pixels had tree height ≥5 m in 2020 and tree height <5 m in 2000.\r\n\r\nTree cover gain may indicate a number of potential activities, including natural forest growth, the tree crop rotation cycle, or tree plantation management. \r\n\r\nWhen zoomed out (< zoom level 12), pixels of gain are shaded according to the density of gain at the 30 x 30 meter scale. Pixels with darker shading represent areas with a higher concentration of tree cover gain, whereas pixels with lighter shading indicate a lower concentration of tree cover gain. There is no variation in pixel shading when the data is at full resolution (≥ zoom level 12). ",
    "im:notes" : "",
    "dc:title" : "Intact Forest Landscape (2020)",
    "dc:url" : "https://intactforests.org/data.ifl.html",
    "dc:creator" : "",
    "im:thematic-area" : "Conservation",
    "dc:originator" : "GlobalForestWatch",
    "im:geographic-area" : "Global",
    "dc:source" : "Potapov, P., Hansen, M.C., Pickens, A., Hernandez-Serna, A., Tyukavina, A., Turubanova, S., Zalles, V., Li, X., Khan, A., Stolle, F., Harris, N., Song, X-P., Baggett, A., Kommareddy, I., and Kommareddy, A. 2022. The Global 2000-2020 Land Cover and Land Use Change Dataset Derived From the Landsat Archive: First Results. Frontiers in Remote Sensing, 13, April 2022. https://doi.org/10.3389/frsen.2022.856903. Accessed through Global Forest Watch on [date]. www.globalforestwatch.org."
  },
  "parameters" : {
    "wcsIdentifier" : "im-data-global-conservation__intact_forest_landscapes_2020",
    "transform" : "",
    "serviceUrl" : "https://integratedmodelling.org/geoserver/ows",
    "nodata" : "-9999",
    "wcsVersion" : "2.0.1"
  },
  "localPaths" : [ ],
  "history" : [ ],
  "notifications" : [ ],
  "attributes" : [ ],
  "spatialExtent" : {
    "east" : 178.24085974200003,
    "west" : -172.703140258,
    "north" : 69.732210674,
    "south" : -55.459789326000006,
    "gridResolution" : null,
    "gridUnit" : null
  },
  "dependencies" : null,
  "outputs" : null,
  "categorizables" : [ ],
  "codelists" : [ ],
  "availability" : null,
  "exportFormats" : { }
}