{
  "urn" : "local:alessio.bulckaen:im.data.global:rmf_layers.global_root_mass_fraction_grass_mean_2020",
  "version" : "0.0.1",
  "adapterType" : "wcs",
  "localPath" : "im.data.global/resources/rmf_layers.global_root_mass_fraction_grass_mean_2020",
  "geometry" : "S2(43200,21120){bbox=[-180.0 180.00833333333333 -88.00833333333333 88.0],proj=EPSG:4326}",
  "projectName" : "im.data.global",
  "localName" : "rmf_layers.global_root_mass_fraction_grass_mean_2020",
  "type" : "NUMBER",
  "resourceTimestamp" : 1733932091910,
  "metadata" : { },
  "parameters" : {
    "wcsIdentifier" : "rmf_layers__global_root_mass_fraction_grass_mean_2020",
    "transform" : "",
    "serviceUrl" : "https://integratedmodelling.org/aux-geoserver/rmf_layers/wcs",
    "wcsVersion" : "2.0.1"
  },
  "localPaths" : [ ],
  "history" : [ ],
  "notifications" : [ ],
  "attributes" : [ ],
  "spatialExtent" : {
    "east" : 180.00833333333333,
    "west" : -180.0,
    "north" : 88.0,
    "south" : -88.00833333333333,
    "gridResolution" : null,
    "gridUnit" : null
  },
  "dependencies" : null,
  "outputs" : null,
  "categorizables" : [ ],
  "codelists" : [ ],
  "availability" : null,
  "exportFormats" : { }
}