{
  "urn" : "local:rubencc:im.data.global:im-data-global-conservation.mosev_global_burn_severity_rdnbr_2003", 
  "version" : "0.0.1", 
  "adapterType" : "wcs", 
  "localPath" : "im.data.global/resources/im-data-global-conservation.mosev_global_burn_severity_rdnbr_2003", 
  "geometry" : "τ1{tend=1072915200000,tstart=1041379200000,ttype=logical}S2(122029,44065){bbox=[-179.99999999945132 180.00075446754116 -59.99912519143105 69.99999999370779],proj=EPSG:4326}", 
  "projectName" : "im.data.global", 
  "localName" : "im-data-global-conservation.mosev_global_burn_severity_rdnbr_2003", 
  "type" : "NUMBER", 
  "resourceTimestamp" : 1717056687100, 
  "metadata" : {
    "im:keywords" : "global burn severity database MODIS", 
    "dc:comment" : "To make advances in the fire discipline, as well as in the study of CO2 emissions, it is of great interest to develop a global database with estimators of the degree of biomass consumed by fire, which is defined as burn severity. In this work we present the first global burn severity database (MOSEV database), which is based on Moderate Resolution Imaging Spectroradiometer (MODIS) surface reflectance and burned area (BA) products from November 2000 to near real time. To build the database we combined Terra MOD09A1 and Aqua MYD09A1 surface reflectance products to obtain dense time series of the normalized burn ratio (NBR) spectral index, and we used the MCD64A1 product to identify BA and the date of burning. Then, we calculated for each burned pixel the difference of the NBR (dNBR) and its relativized version (RdNBR), as well as the post-burn NBR, which are the most commonly used burn severity spectral indices. The database also includes the pre-burn NBR used for calculations, the date of the pre- and post-burn NBR, and the date of burning. Moreover, in this work we have compared the burn severity metrics included in MOSEV (dNBR, RdNBR and post-burn NBR) with the same ones obtained from Landsat-8 scenes which have an original resolution of 30 m. We calculated the Pearson's correlation coefficients and the significance of the relationships using 13 pairs of Landsat scenes randomly distributed across the globe, with a total BA of 6904 km2 (n=32 163). Results showed that MOSEV and Landsat-8 burn severity indices are highly correlated, particularly the post-burn NBR (R=0.88; P<0.001), and dNBR (R=0.74; P<0.001) showed stronger relationships than RdNBR (R=0.42; P<0.001). Differences between MOSEV and Landsat-8 indices are attributable to variability in reflectance values and to the different temporal resolution of both satellites (MODIS: 1–2 d; Landsat: 16 d).\nThe dataset has been submited to these transformations.\n\nReclassification:\n- -4000 ≤ x ≤ 99 = 1\n- 100 ≤ x ≤ 269 = 0.75\n- 270 ≤ x ≤ 439 = 0.5\n- 440 ≤ x ≤ 659 = 0.25\n- 660 ≤ x ≤ 4000 = 0\n\nAverage calculation:\naverage_data = sum of the bands data / total number of rasters\n", 
    "im:notes" : "", 
    "dc:title" : "MOSEV: average of a global burn severity database from MODIS 2003", 
    "dc:url" : "https://essd.copernicus.org/articles/13/1925/2021/essd-13-1925-2021.html", 
    "dc:creator" : "Esteban Alonso-González\nVíctor Fernández-García\n\nRubén Crespo Ceballos\n", 
    "im:thematic-area" : "Conservation", 
    "dc:originator" : "Earth system science data", 
    "im:geographic-area" : "Global", 
    "dc:source" : ""
  }, 
  "parameters" : {
    "wcsIdentifier" : "im-data-global-conservation__MOSEV_global_burn_severity_RdNBR_2003", 
    "transform" : "", 
    "serviceUrl" : "https://integratedmodelling.org/geoserver/ows", 
    "nodata" : "255.0", 
    "wcsVersion" : "2.0.1"
  }, 
  "localPaths" : [ ], 
  "history" : [ ], 
  "notifications" : [ ], 
  "attributes" : [ ], 
  "spatialExtent" : {
    "east" : 180.00075446754116, 
    "west" : -179.99999999945132, 
    "north" : 69.99999999370779, 
    "south" : -59.99912519143105, 
    "gridResolution" : null, 
    "gridUnit" : null
  }, 
  "dependencies" : null, 
  "outputs" : null, 
  "categorizables" : [ ], 
  "codelists" : [ ], 
  "availability" : null, 
  "exportFormats" : { }
}