{
  "urn" : "local:srwohl:im.data.global:im-data-global-landcover_corine_extent",
  "version" : "0.0.1",
  "adapterType" : "wfs",
  "localPath" : "im.data.global/resources/im-data-global-landcover_corine_extent",
  "geometry" : "s1(1){bbox=[-31.38252451041234 44.81557712606495 27.504370248523347 71.28840593965181],proj=EPSG:4326}",
  "projectName" : "im.data.global",
  "localName" : "im-data-global-landcover_corine_extent",
  "type" : "OBJECT",
  "resourceTimestamp" : 1619436061355,
  "metadata" : {
    "im:keywords" : "features,corine-extent",
    "dc:comment" : "Extent of Corine land cover map. A total of 39 european countries are involved.",
    "im:notes" : "",
    "dc:title" : "corine-extent",
    "dc:url" : "",
    "dc:creator" : "ARIES team",
    "im:thematic-area" : "Landcover",
    "dc:originator" : "",
    "im:geographic-area" : "Europe",
    "dc:source" : ""
  },
  "parameters" : {
    "serviceUrl" : "https://integratedmodelling.org/geoserver/ows",
    "wfsVersion" : "1.0.0",
    "wfsIdentifier" : "im-data-global-landcover:corine_extent"
  },
  "localPaths" : [ ],
  "history" : [ ],
  "notifications" : [ ],
  "attributes" : {
    "name" : "Id",
    "type" : "NUMBER",
    "key" : false,
    "optional" : true,
    "exampleValue" : null,
    "index" : 0
  },
  "spatialExtent" : {
    "east" : 44.81557712606495,
    "west" : -31.38252451041234,
    "north" : 71.28840593965181,
    "south" : 27.504370248523347,
    "gridResolution" : null,
    "gridUnit" : null
  },
  "dependencies" : null,
  "outputs" : null,
  "categorizables" : [ ],
  "exportFormats" : { }
}