{
  "urn" : "local:akif.ortak:im.data.global:im-data-global-ecology.c_gls_ndvi_mean_2003",
  "version" : "0.0.1",
  "adapterType" : "wcs",
  "localPath" : "im.data.global/resources/im-data-global-ecology.c_gls_ndvi_mean_2003",
  "geometry" : "τ1{tend=1072915200000,tstart=1041379200000,ttype=logical}S2(40319,15679){bbox=[-180.00446428571428 179.9955357147016 -59.99553571444743 80.00446428571429],proj=EPSG:4326}",
  "projectName" : "im.data.global",
  "localName" : "im-data-global-ecology.c_gls_ndvi_mean_2003",
  "type" : "NUMBER",
  "resourceTimestamp" : 1708684706651,
  "metadata" : {
    "im:keywords" : "Ecology, NormalizedDifferenceVegetationIndex,Agriculture,Forest",
    "dc:comment" : "The Normalized Difference Vegetation Index (NDVI) is an indicator of the greenness of the biomes. As such, it is closely linked to the FAPAR.\r\nEven though it is not a physical property of the vegetation cover, its very simple formulation\r\nNDVI = (REF_nir – REF_red)/(REF_nir + REF_red)\r\nwhere REF_nir and REF_red are the spectral reflectances measured in the near infrared and red wavebands respectively, makes it widely used for ecosystems monitoring.\r\nAries team calculated the annual mean value of NDVI data from Copernicus 1km NDVI data.",
    "im:notes" : "",
    "dc:title" : "Copernicus Lands Service NDVI 1km V2 (2003)",
    "dc:url" : "https://land.copernicus.eu/global/products/ndvi",
    "dc:creator" : "",
    "im:thematic-area" : "Ecology",
    "dc:originator" : "Copernicus Global Land Service",
    "im:geographic-area" : "Global",
    "dc:source" : "Copernicus Global Land Service\r\nhttps://land.copernicus.eu/global/products/ndvi"
  },
  "parameters" : {
    "wcsIdentifier" : "im-data-global-ecology__c_gls_NDVI_Mean_2003",
    "transform" : "(self>=250 ) ? null : ((self*0.004)-0.08)",
    "serviceUrl" : "https://integratedmodelling.org/geoserver/ows",
    "wcsVersion" : "2.0.1"
  },
  "localPaths" : [ ],
  "history" : [ ],
  "notifications" : [ ],
  "attributes" : [ ],
  "spatialExtent" : {
    "east" : 179.9955357147016,
    "west" : -180.00446428571428,
    "north" : 80.00446428571429,
    "south" : -59.99553571444743,
    "gridResolution" : null,
    "gridUnit" : null
  },
  "dependencies" : null,
  "outputs" : null,
  "categorizables" : [ ],
  "codelists" : [ ],
  "availability" : null,
  "exportFormats" : { }
}