{
  "urn" : "local:srwohl:im.data.global:im-data-global-climate.worldclim_20_30s_min_temperature_year",
  "version" : "0.0.1",
  "adapterType" : "wcs",
  "localPath" : "im.data.global/resources/im-data-global-climate.worldclim_20_30s_min_temperature_year",
  "geometry" : "S2(43199,21599){bbox=[-180.0 180.0 -90.0 90.0],proj=EPSG:4326}",
  "projectName" : "im.data.global",
  "localName" : "im-data-global-climate.worldclim_20_30s_min_temperature_year",
  "type" : "NUMBER",
  "resourceTimestamp" : 1586865393387,
  "metadata" : {
    "im:keywords" : "Minimum temperature",
    "dc:comment" : "Minimum temperature (degrees C), 1970-2000 average, 30-second spatial resolution.",
    "im:notes" : "",
    "dc:title" : "Yearly average minimum temperature, WorldClim 2",
    "dc:url" : "http://worldclim.org/version2",
    "dc:creator" : "",
    "im:thematic-area" : "Physical and climatic",
    "dc:originator" : "WorldClim",
    "im:geographic-area" : "Global",
    "dc:source" : "Fick, S.E. and R.J. Hijmans, 2017. Worldclim 2: New 1-km spatial resolution climate surfaces for global land areas. International Journal of Climatology 37(12):4302-4315."
  },
  "parameters" : {
    "wcsIdentifier" : "im-data-global-climate__worldclim_20_30s_min_temperature_year",
    "serviceUrl" : "https://integratedmodelling.org/geoserver/ows",
    "nodata" : "0.0",
    "wcsVersion" : "2.0.1"
  },
  "localPaths" : [ ],
  "history" : [ ],
  "notifications" : [ ],
  "attributes" : [ ],
  "spatialExtent" : {
    "east" : 180.0,
    "west" : -180.0,
    "north" : 90.0,
    "south" : -90.0,
    "gridResolution" : null,
    "gridUnit" : null
  },
  "dependencies" : null,
  "outputs" : null,
  "exportFormats" : { }
}